[
  {
    "type": "get",
    "url": "/v1/articles",
    "title": "Get articles",
    "name": "GetArticles",
    "group": "Articles",
    "version": "1.0.0",
    "parameter": {
      "fields": {
        "Parameter": [
          {
            "group": "Parameter",
            "type": "String",
            "optional": false,
            "field": "title",
            "description": "<p>Title of the article.</p>"
          },
          {
            "group": "Parameter",
            "type": "String",
            "optional": false,
            "field": "news_site",
            "description": "<p>News site that published the article.</p>"
          },
          {
            "group": "Parameter",
            "type": "String",
            "optional": false,
            "field": "news_site_long",
            "description": "<p>Unformatted name of the news site that published the article.</p>"
          },
          {
            "group": "Parameter",
            "type": "String",
            "optional": false,
            "field": "url",
            "description": "<p>URL of the article.</p>"
          },
          {
            "group": "Parameter",
            "type": "String",
            "optional": false,
            "field": "featured_image",
            "description": "<p>Featured image of the article.</p>"
          },
          {
            "group": "Parameter",
            "type": "Number",
            "optional": false,
            "field": "id",
            "description": "<p>ID from the news site.</p>"
          },
          {
            "group": "Parameter",
            "type": "Number",
            "optional": false,
            "field": "_id",
            "description": "<p>ID generated by SNAPI.</p>"
          },
          {
            "group": "Parameter",
            "type": "Number",
            "optional": false,
            "field": "date_published",
            "description": "<p>Date when news site added the article</p>"
          },
          {
            "group": "Parameter",
            "type": "Number",
            "optional": false,
            "field": "date_added",
            "description": "<p>Date when article was added to SNAPI</p>"
          },
          {
            "group": "Parameter",
            "type": "Array",
            "optional": false,
            "field": "categories",
            "description": "<p>Array with categories.</p>"
          },
          {
            "group": "Parameter",
            "type": "Array",
            "optional": false,
            "field": "tags",
            "description": "<p>Array with tags.</p>"
          }
        ]
      }
    },
    "success": {
      "fields": {
        "Success 200": [
          {
            "group": "Success 200",
            "type": "String",
            "optional": false,
            "field": "title",
            "description": "<p>Title of the article.</p>"
          },
          {
            "group": "Success 200",
            "type": "String",
            "optional": false,
            "field": "news_site",
            "description": "<p>News site that published the article.</p>"
          },
          {
            "group": "Success 200",
            "type": "String",
            "optional": false,
            "field": "news_site_long",
            "description": "<p>Unformatted name of the news site that published the article.</p>"
          },
          {
            "group": "Success 200",
            "type": "String",
            "optional": false,
            "field": "url",
            "description": "<p>URL of the article.</p>"
          },
          {
            "group": "Success 200",
            "type": "String",
            "optional": false,
            "field": "featured_image",
            "description": "<p>Featured image of the article.</p>"
          },
          {
            "group": "Success 200",
            "type": "Number",
            "optional": false,
            "field": "id",
            "description": "<p>ID from the news site.</p>"
          },
          {
            "group": "Success 200",
            "type": "Number",
            "optional": false,
            "field": "_id",
            "description": "<p>ID generated by SNAPI.</p>"
          },
          {
            "group": "Success 200",
            "type": "Number",
            "optional": false,
            "field": "date_published",
            "description": "<p>Date when news site added the article.</p>"
          },
          {
            "group": "Success 200",
            "type": "Number",
            "optional": false,
            "field": "date_added",
            "description": "<p>Date when article was added to SNAPI.</p>"
          },
          {
            "group": "Success 200",
            "type": "Array",
            "optional": false,
            "field": "categories",
            "description": "<p>Array with categories.</p>"
          },
          {
            "group": "Success 200",
            "type": "Array",
            "optional": false,
            "field": "tags",
            "description": "<p>Array with tags.</p>"
          }
        ]
      },
      "examples": [
        {
          "title": "Success-Response:",
          "content": "HTTP/1.1 200 OK\n{\n  \"docs\": [\n    {\n\n    }\n  ],\n  \"totalDocs\": 719,\n  \"limit\": 10,\n  \"hasPrevPage\": false,\n  \"hasNextPage\": true,\n  \"page\": 1,\n  \"totalPages\": 72,\n  \"prevPage\": null,\n  \"nextPage\": 2\n}",
          "type": "json"
        }
      ]
    },
    "error": {
      "examples": [
        {
          "title": "Error-Response:",
          "content": "HTTP/1.1 400 Bad request\n{\n  \"message\": \"Uh-oh, something went wrong. Please try again!\"\n}",
          "type": "json"
        }
      ]
    },
    "filename": "routes/articles.router.js",
    "groupTitle": "Articles"
  },
  {
    "type": "post",
    "url": "/v1/articles",
    "title": "Post articles",
    "name": "PostArticles",
    "group": "Articles",
    "version": "1.0.0",
    "header": {
      "fields": {
        "Header": [
          {
            "group": "Header",
            "type": "String",
            "optional": false,
            "field": "Authorization",
            "description": "<p>A bearer token</p>"
          }
        ]
      }
    },
    "permission": [
      {
        "name": "admin"
      }
    ],
    "parameter": {
      "fields": {
        "Parameter": [
          {
            "group": "Parameter",
            "type": "String",
            "optional": false,
            "field": "title",
            "description": "<p>Title of the article.</p>"
          },
          {
            "group": "Parameter",
            "type": "String",
            "optional": false,
            "field": "news_site",
            "description": "<p>News site that published the article.</p>"
          },
          {
            "group": "Parameter",
            "type": "String",
            "optional": false,
            "field": "news_site_long",
            "description": "<p>Unformatted name of the news site that published the article.</p>"
          },
          {
            "group": "Parameter",
            "type": "String",
            "optional": false,
            "field": "url",
            "description": "<p>URL of the article.</p>"
          },
          {
            "group": "Parameter",
            "type": "String",
            "optional": false,
            "field": "featured_image",
            "description": "<p>Featured image of the article.</p>"
          },
          {
            "group": "Parameter",
            "type": "Number",
            "optional": false,
            "field": "id",
            "description": "<p>ID from the news site.</p>"
          },
          {
            "group": "Parameter",
            "type": "Number",
            "optional": false,
            "field": "_id",
            "description": "<p>ID generated by SNAPI.</p>"
          },
          {
            "group": "Parameter",
            "type": "Number",
            "optional": false,
            "field": "date_published",
            "description": "<p>Date when news site added the article</p>"
          },
          {
            "group": "Parameter",
            "type": "Number",
            "optional": false,
            "field": "date_added",
            "description": "<p>Date when article was added to SNAPI</p>"
          },
          {
            "group": "Parameter",
            "type": "Array",
            "optional": false,
            "field": "categories",
            "description": "<p>Array with categories.</p>"
          },
          {
            "group": "Parameter",
            "type": "Array",
            "optional": false,
            "field": "tags",
            "description": "<p>Array with tags.</p>"
          }
        ]
      }
    },
    "success": {
      "fields": {
        "Success 200": [
          {
            "group": "Success 200",
            "type": "String",
            "optional": false,
            "field": "title",
            "description": "<p>Title of the article.</p>"
          },
          {
            "group": "Success 200",
            "type": "String",
            "optional": false,
            "field": "news_site",
            "description": "<p>News site that published the article.</p>"
          },
          {
            "group": "Success 200",
            "type": "String",
            "optional": false,
            "field": "news_site_long",
            "description": "<p>Unformatted name of the news site that published the article.</p>"
          },
          {
            "group": "Success 200",
            "type": "String",
            "optional": false,
            "field": "url",
            "description": "<p>URL of the article.</p>"
          },
          {
            "group": "Success 200",
            "type": "String",
            "optional": false,
            "field": "featured_image",
            "description": "<p>Featured image of the article.</p>"
          },
          {
            "group": "Success 200",
            "type": "Number",
            "optional": false,
            "field": "id",
            "description": "<p>ID from the news site.</p>"
          },
          {
            "group": "Success 200",
            "type": "Number",
            "optional": false,
            "field": "_id",
            "description": "<p>ID generated by SNAPI.</p>"
          },
          {
            "group": "Success 200",
            "type": "Number",
            "optional": false,
            "field": "date_published",
            "description": "<p>Date when news site added the article.</p>"
          },
          {
            "group": "Success 200",
            "type": "Number",
            "optional": false,
            "field": "date_added",
            "description": "<p>Date when article was added to SNAPI.</p>"
          },
          {
            "group": "Success 200",
            "type": "Array",
            "optional": false,
            "field": "categories",
            "description": "<p>Array with categories.</p>"
          },
          {
            "group": "Success 200",
            "type": "Array",
            "optional": false,
            "field": "tags",
            "description": "<p>Array with tags.</p>"
          }
        ]
      },
      "examples": [
        {
          "title": "Success-Response:",
          "content": "    HTTP/1.1 201 Created\n{\n  \"message\": \"Article saved\",\n  \"article\": {\n      \"date_published\": 1550662153,\n      \"date_added\": 1550662153,\n      \"tags\": [\n          \"control\",\n          \"russian\",\n          \"radio\",\n          \"telescope\",\n          \"satellite\",\n          \"lost\"\n      ],\n      \"categories\": [\n          \"Space Exploration\"\n      ],\n      \"_id\": \"5c6d3eb769e4a32ec36c7240\",\n      \"news_site\": \"phys\",\n      \"news_site_long\": \"Phys\",\n      \"title\": \"Control of Russian radio telescopasdasde satellite sdfsdfsdfsdflostsdfgdfgsdfsdfsdfdfssdfsdfdf\",\n      \"url\": \"https://phys.org/news/2019-01-rusasdasdsian-radio-tsdfsdfelescopesdf-satellite-lossdfsddfsdfsdfgdfgft.html\",\n      \"featured_image\": \"https://dummyimage.com/1024x1024/2c3e50/fcfcfc&text=No+Image+Available\",\n      \"__v\": 0\n    }\n}",
          "type": "json"
        }
      ]
    },
    "error": {
      "examples": [
        {
          "title": "Error-Response:",
          "content": "    HTTP/1.1 400 Bad request\n{\n  \"error\": \"title, url and _id must be unique\"\n}",
          "type": "json"
        },
        {
          "title": "Forbidden-Response:",
          "content": "HTTP/1.1 403 Forbidden\nForbidden",
          "type": "json"
        }
      ]
    },
    "filename": "routes/articles.router.js",
    "groupTitle": "Articles"
  },
  {
    "type": "post",
    "url": "/auth/login",
    "title": "Login",
    "name": "Login",
    "group": "Auth",
    "version": "1.0.0",
    "success": {
      "examples": [
        {
          "title": "Success-Response:",
          "content": "HTTP/1.1 200 OK\n{\n  \"title\": \"Login Successful\",\n  \"detail\": \"Successfully validated user credentials\",\n  \"token\": \"\"\n}",
          "type": "json"
        }
      ]
    },
    "error": {
      "examples": [
        {
          "title": "Unauthorized-Response:",
          "content": "  HTTP/1.1 401 Unauthorized\n\"errors\": [\n{\n \"title\": \"Invalid Credentials\",\n \"detail\": \"Check email and password combination\",\n \"errorMessage\": \"\"\n}\n]",
          "type": "json"
        }
      ]
    },
    "filename": "routes/users.router.js",
    "groupTitle": "Auth"
  },
  {
    "type": "post",
    "url": "/auth/register",
    "title": "Register",
    "name": "Register",
    "group": "Auth",
    "version": "1.0.0",
    "header": {
      "fields": {
        "Header": [
          {
            "group": "Header",
            "type": "String",
            "optional": false,
            "field": "Authorization",
            "description": "<p>A bearer token</p>"
          }
        ]
      }
    },
    "permission": [
      {
        "name": "admin"
      }
    ],
    "success": {
      "examples": [
        {
          "title": "Success-Response:",
          "content": "HTTP/1.1 201 Created\n{\n  \"title\": \"User Registration Successful\",\n  \"detail\": \"Successfully registered new user\"\n}",
          "type": "json"
        }
      ]
    },
    "error": {
      "examples": [
        {
          "title": "Forbidden-Response:",
          "content": "HTTP/1.1 403 Forbidden\nForbidden",
          "type": "json"
        },
        {
          "title": "Bad-Request-Response:",
          "content": "HTTP/1.1 400 Bad Request\n{\n  \"errors\": [\n    {\n      \"title\": \"Registration Error\",\n      \"detail\": \"Something went wrong during registration process.\",\n      \"errorMessage\": \"Users validation failed: email: Error, expected `email` to be unique. Value: `derk@derkweijers.me2`\"\n     }\n   ]\n}",
          "type": "json"
        }
      ]
    },
    "filename": "routes/users.router.js",
    "groupTitle": "Auth"
  },
  {
    "type": "get",
    "url": "/v1/blogs",
    "title": "Get blogs",
    "name": "GetBlogs",
    "group": "Blogs",
    "version": "1.0.0",
    "parameter": {
      "fields": {
        "Parameter": [
          {
            "group": "Parameter",
            "type": "String",
            "optional": false,
            "field": "title",
            "description": "<p>Title of the blog.</p>"
          },
          {
            "group": "Parameter",
            "type": "String",
            "optional": false,
            "field": "news_site",
            "description": "<p>News site that published the blog.</p>"
          },
          {
            "group": "Parameter",
            "type": "String",
            "optional": false,
            "field": "news_site_long",
            "description": "<p>Unformatted name of the news site that published the blog.</p>"
          },
          {
            "group": "Parameter",
            "type": "String",
            "optional": false,
            "field": "url",
            "description": "<p>URL of the blog.</p>"
          },
          {
            "group": "Parameter",
            "type": "String",
            "optional": false,
            "field": "featured_image",
            "description": "<p>Featured image of the blog.</p>"
          },
          {
            "group": "Parameter",
            "type": "Number",
            "optional": false,
            "field": "id",
            "description": "<p>ID from the news site.</p>"
          },
          {
            "group": "Parameter",
            "type": "Number",
            "optional": false,
            "field": "_id",
            "description": "<p>ID generated by SNAPI.</p>"
          },
          {
            "group": "Parameter",
            "type": "Number",
            "optional": false,
            "field": "date_published",
            "description": "<p>Date when news site added the blog</p>"
          },
          {
            "group": "Parameter",
            "type": "Number",
            "optional": false,
            "field": "date_added",
            "description": "<p>Date when blog was added to SNAPI</p>"
          },
          {
            "group": "Parameter",
            "type": "Array",
            "optional": false,
            "field": "categories",
            "description": "<p>Array with categories.</p>"
          },
          {
            "group": "Parameter",
            "type": "Array",
            "optional": false,
            "field": "tags",
            "description": "<p>Array with tags.</p>"
          }
        ]
      }
    },
    "success": {
      "fields": {
        "Success 200": [
          {
            "group": "Success 200",
            "type": "String",
            "optional": false,
            "field": "title",
            "description": "<p>Title of the blogs.</p>"
          },
          {
            "group": "Success 200",
            "type": "String",
            "optional": false,
            "field": "news_site",
            "description": "<p>News site that published the blog.</p>"
          },
          {
            "group": "Success 200",
            "type": "String",
            "optional": false,
            "field": "news_site_long",
            "description": "<p>Unformatted name of the news site that published the blog.</p>"
          },
          {
            "group": "Success 200",
            "type": "String",
            "optional": false,
            "field": "url",
            "description": "<p>URL of the blog.</p>"
          },
          {
            "group": "Success 200",
            "type": "String",
            "optional": false,
            "field": "featured_image",
            "description": "<p>Featured image of the blog.</p>"
          },
          {
            "group": "Success 200",
            "type": "Number",
            "optional": false,
            "field": "id",
            "description": "<p>ID from the news site.</p>"
          },
          {
            "group": "Success 200",
            "type": "Number",
            "optional": false,
            "field": "_id",
            "description": "<p>ID generated by SNAPI.</p>"
          },
          {
            "group": "Success 200",
            "type": "Number",
            "optional": false,
            "field": "date_published",
            "description": "<p>Date when news site added the blog.</p>"
          },
          {
            "group": "Success 200",
            "type": "Number",
            "optional": false,
            "field": "date_added",
            "description": "<p>Date when blog was added to SNAPI.</p>"
          },
          {
            "group": "Success 200",
            "type": "Array",
            "optional": false,
            "field": "categories",
            "description": "<p>Array with categories.</p>"
          },
          {
            "group": "Success 200",
            "type": "Array",
            "optional": false,
            "field": "tags",
            "description": "<p>Array with tags.</p>"
          }
        ]
      },
      "examples": [
        {
          "title": "Success-Response:",
          "content": "HTTP/1.1 200 OK\n{\n  \"docs\": [\n    {\n\n    }\n  ],\n  \"totalDocs\": 719,\n  \"limit\": 10,\n  \"hasPrevPage\": false,\n  \"hasNextPage\": true,\n  \"page\": 1,\n  \"totalPages\": 72,\n  \"prevPage\": null,\n  \"nextPage\": 2\n}",
          "type": "json"
        }
      ]
    },
    "error": {
      "examples": [
        {
          "title": "Error-Response:",
          "content": "HTTP/1.1 400 Bad request\n{\n  \"message\": \"Uh-oh, something went wrong. Please try again!\"\n}",
          "type": "json"
        }
      ]
    },
    "filename": "routes/blogs.router.js",
    "groupTitle": "Blogs"
  },
  {
    "type": "post",
    "url": "/v1/blogs",
    "title": "Post blogs",
    "name": "PostBlogs",
    "group": "Blogs",
    "version": "1.0.0",
    "header": {
      "fields": {
        "Header": [
          {
            "group": "Header",
            "type": "String",
            "optional": false,
            "field": "Authorization",
            "description": "<p>A bearer token</p>"
          }
        ]
      }
    },
    "permission": [
      {
        "name": "admin"
      }
    ],
    "parameter": {
      "fields": {
        "Parameter": [
          {
            "group": "Parameter",
            "type": "String",
            "optional": false,
            "field": "title",
            "description": "<p>Title of the blog.</p>"
          },
          {
            "group": "Parameter",
            "type": "String",
            "optional": false,
            "field": "news_site",
            "description": "<p>News site that published the blog.</p>"
          },
          {
            "group": "Parameter",
            "type": "String",
            "optional": false,
            "field": "news_site_long",
            "description": "<p>Unformatted name of the news site that published the blog.</p>"
          },
          {
            "group": "Parameter",
            "type": "String",
            "optional": false,
            "field": "url",
            "description": "<p>URL of the blog.</p>"
          },
          {
            "group": "Parameter",
            "type": "String",
            "optional": false,
            "field": "featured_image",
            "description": "<p>Featured image of the blog.</p>"
          },
          {
            "group": "Parameter",
            "type": "Number",
            "optional": false,
            "field": "id",
            "description": "<p>ID from the news site.</p>"
          },
          {
            "group": "Parameter",
            "type": "Number",
            "optional": false,
            "field": "_id",
            "description": "<p>ID generated by SNAPI.</p>"
          },
          {
            "group": "Parameter",
            "type": "Number",
            "optional": false,
            "field": "date_published",
            "description": "<p>Date when news site added the blog.</p>"
          },
          {
            "group": "Parameter",
            "type": "Number",
            "optional": false,
            "field": "date_added",
            "description": "<p>Date when blog was added to SNAPI.</p>"
          },
          {
            "group": "Parameter",
            "type": "Array",
            "optional": false,
            "field": "categories",
            "description": "<p>Array with categories.</p>"
          },
          {
            "group": "Parameter",
            "type": "Array",
            "optional": false,
            "field": "tags",
            "description": "<p>Array with tags.</p>"
          }
        ]
      }
    },
    "success": {
      "fields": {
        "Success 200": [
          {
            "group": "Success 200",
            "type": "String",
            "optional": false,
            "field": "title",
            "description": "<p>Title of the blog.</p>"
          },
          {
            "group": "Success 200",
            "type": "String",
            "optional": false,
            "field": "news_site",
            "description": "<p>News site that published the blog.</p>"
          },
          {
            "group": "Success 200",
            "type": "String",
            "optional": false,
            "field": "news_site_long",
            "description": "<p>Unformatted name of the news site that published the blog.</p>"
          },
          {
            "group": "Success 200",
            "type": "String",
            "optional": false,
            "field": "url",
            "description": "<p>URL of the blog.</p>"
          },
          {
            "group": "Success 200",
            "type": "String",
            "optional": false,
            "field": "featured_image",
            "description": "<p>Featured image of the blog.</p>"
          },
          {
            "group": "Success 200",
            "type": "Number",
            "optional": false,
            "field": "id",
            "description": "<p>ID from the news site.</p>"
          },
          {
            "group": "Success 200",
            "type": "Number",
            "optional": false,
            "field": "_id",
            "description": "<p>ID generated by SNAPI.</p>"
          },
          {
            "group": "Success 200",
            "type": "Number",
            "optional": false,
            "field": "date_published",
            "description": "<p>Date when news site added the blog</p>"
          },
          {
            "group": "Success 200",
            "type": "Number",
            "optional": false,
            "field": "date_added",
            "description": "<p>Date when blog was added to SNAPI</p>"
          },
          {
            "group": "Success 200",
            "type": "Array",
            "optional": false,
            "field": "categories",
            "description": "<p>Array with categories.</p>"
          },
          {
            "group": "Success 200",
            "type": "Array",
            "optional": false,
            "field": "tags",
            "description": "<p>Array with tags.</p>"
          }
        ]
      },
      "examples": [
        {
          "title": "Success-Response:",
          "content": "    HTTP/1.1 201 Created\n{\n  \"message\": \"blog saved\",\n  \"blog\": {\n      \"date_published\": 1550662153,\n      \"date_added\": 1550662153,\n      \"tags\": [\n          \"control\",\n          \"russian\",\n          \"radio\",\n          \"telescope\",\n          \"satellite\",\n          \"lost\"\n      ],\n      \"categories\": [\n          \"Space Exploration\"\n      ],\n      \"_id\": \"5c6d3eb769e4a32ec36c7240\",\n      \"news_site\": \"phys\",\n      \"news_site_long\": \"Phys\",\n      \"title\": \"Control of Russian radio telescopasdasde satellite sdfsdfsdfsdflostsdfgdfgsdfsdfsdfdfssdfsdfdf\",\n      \"url\": \"https://phys.org/news/2019-01-rusasdasdsian-radio-tsdfsdfelescopesdf-satellite-lossdfsddfsdfsdfgdfgft.html\",\n      \"featured_image\": \"https://dummyimage.com/1024x1024/2c3e50/fcfcfc&text=No+Image+Available\",\n      \"__v\": 0\n    }\n}",
          "type": "json"
        }
      ]
    },
    "error": {
      "examples": [
        {
          "title": "Error-Response:",
          "content": "    HTTP/1.1 400 Bad request\n{\n  \"error\": \"title, url and _id must be unique\"\n}",
          "type": "json"
        },
        {
          "title": "Forbidden-Response:",
          "content": "HTTP/1.1 403 Forbidden\nForbidden",
          "type": "json"
        }
      ]
    },
    "filename": "routes/blogs.router.js",
    "groupTitle": "Blogs"
  },
  {
    "type": "get",
    "url": "/v1/info",
    "title": "Get general info",
    "name": "GetInfo",
    "group": "Info",
    "version": "1.0.0",
    "success": {
      "examples": [
        {
          "title": "Success-Response:",
          "content": "HTTP/1.1 200 OK\n{\n \"total_number_of_articles\": 721,\n \"api_version\": \"1.0.0\"\n}",
          "type": "json"
        }
      ]
    },
    "filename": "routes/info.router.js",
    "groupTitle": "Info"
  }
]
